{
    "Projects": {
        "count": 8,
        "most_viewed":{

	    	"project_id": "proj_002",
            "project_name": "Data Analysis",
            "project_description": "Target an user and Analysis his/her data",
            "icon":"icon-trophy-fill",
            "created": {
                "timestamp": 145475512,
                "on": "29 July 2015",
                "id": "std0002",
                "name": "Sureya",
                "pic": "img/profile/2.jpg"
            }
        },
        "popular":{
        	"project_id": "proj_001",
            "project_name": "Gesture Controller",
            "project_description": "Convert gesture data in to machine readable code",
            "icon":"icon-ship-wheel",
            "created": {
                "timestamp": 145475512,
                "on": "24 July 2015",
                "id": "std0001",
                "name": "Amar",
                "pic": "img/profile/1.jpg"
            }
        },
        "details": [
            {
                "project_id": "proj_001",
                "project_name": "Gesture Controller",
                "project_description": "Convert gesture data in to machine readable code",
                "icon":"icon-ship-wheel",
                "created": {
                    "timestamp": 145475512,
                    "on": "24 July 2015",
                    "id": "std0001",
                    "name": "Amar",
                    "pic": "img/profile/1.jpg"
                }
            },
            {
                "project_id": "proj_004",
                "project_name": "Library Management",
                "project_description": "Create an Online Library Store",
                "icon":"icon-scale-2",
                "created": {
                    "timestamp": 145475512,
                    "on": "6 July 2015",
                    "id": "std0005",
                    "name": "Arya",
                    "pic": "img/profile/arya.png"
                }
            },
            {
                "project_id": "proj_002",
                "project_name": "Data Analysis",
                "project_description": "Target an user and Analysis his/her data",
                "icon":"icon-trophy-fill",
                "created": {
                    "timestamp": 145475512,
                    "on": "29 July 2015",
                    "id": "std0002",
                    "name": "Sureya",
                    "pic": "img/profile/2.jpg"
                }
            },
            {
                "project_id": "proj_003",
                "project_name": "Money Management",
                "project_description": "Create a Online Portal to conslidate all the transactions of money",
                "icon":"icon-cash-money",
                "created": {
                    "timestamp": 145475512,
                    "on": "14 Apr 2015",
                    "id": "std0002",
                    "name": "Tyrion",
                    "pic": "img/profile/tl.jpg"
                }
            },
            {
                "project_id": "proj_005",
                "project_name": "Character Predictor",
                "project_description": "Answer to Few questions and decide the character of an user",
                "icon":"icon-race-flag-fill",
                "created": {
                    "timestamp": 145475512,
                    "on": "4 Apr 2015",
                    "id": "std0003",
                    "name": "Goutham",
                    "pic": "img/profile/3.jpg"
                }
            },
            {
                "project_id": "proj_006",
                "project_name": "Retargetting",
                "project_description": "Retarget an user, using an specified algorthim",
                "icon":"icon-arrow-target",
                "created": {
                    "timestamp": 145475512,
                    "on": "3 Mar 2015",
                    "id": "std0003",
                    "name": "Goutham",
                    "pic": "img/profile/3.jpg"
                }
            },
            {
                "project_id": "proj_007",
                "project_name": "Survey",
                "project_description": "Take an general survey of an user about any kind of an product",
                "icon":"icon-telescope",
                "created": {
                    "timestamp": 145475512,
                    "on": "25 Apr 2015",
                    "id": "std0001",
                    "name": "Amar",
                    "pic": "img/profile/1.jpg"
                }
            },
            {
                "project_id": "proj_008",
                "project_name": "Online Test",
                "project_description": "Conduct a online test for users with set of languages and questions",
                "icon":"icon-big-bang",
                "created": {
                    "timestamp": 145475512,
                    "on": "25 Apr 2015",
                    "id": "std0002",
                    "name": "Sureya",
                    "pic": "img/profile/2.jpg"
                }
            }
        ]
    }
}